{
  "project_info": {
    "project_number": "809950040692",
    "firebase_url": "https://lab2-8db1f.firebaseio.com",
    "project_id": "lab2-8db1f",
    "storage_bucket": "lab2-8db1f.appspot.com"
  },
  "client": [
    {
      "client_info": {
        "mobilesdk_app_id": "1:809950040692:android:311352f3b1ebdca1",
        "android_client_info": {
          "package_name": "com.example.jafethvasquez.lab3moviles"
        }
      },
      "oauth_client": [
        {
          "client_id": "809950040692-oqsuhbhfkn9jpvbcg0h36suci07e5ds5.apps.googleusercontent.com",
          "client_type": 1,
          "android_info": {
            "package_name": "com.example.jafethvasquez.lab3moviles",
            "certificate_hash": "bee21c01ae40e0bc9f26b6599616d2454dcbfb00"
          }
        },
        {
          "client_id": "809950040692-fut93u49oq3rvlomnh81dnhs5qr2ed71.apps.googleusercontent.com",
          "client_type": 3
        }
      ],
      "api_key": [
        {
          "current_key": "AIzaSyCh5PD_XSaGX6l6v8_Gov_EeiOIsqQOZRI"
        }
      ],
      "services": {
        "analytics_service": {
          "status": 1
        },
        "appinvite_service": {
          "status": 2,
          "other_platform_oauth_client": [
            {
              "client_id": "809950040692-fut93u49oq3rvlomnh81dnhs5qr2ed71.apps.googleusercontent.com",
              "client_type": 3
            }
          ]
        },
        "ads_service": {
          "status": 2
        }
      }
    },
    {
      "client_info": {
        "mobilesdk_app_id": "1:809950040692:android:9b953c2ea7d9fadb",
        "android_client_info": {
          "package_name": "com.example.jafethvasquez.mobilelab3"
        }
      },
      "oauth_client": [
        {
          "client_id": "809950040692-vrtbii1dctm4dfb917gjdevdk3ff8f7o.apps.googleusercontent.com",
          "client_type": 1,
          "android_info": {
            "package_name": "com.example.jafethvasquez.mobilelab3",
            "certificate_hash": "bee21c01ae40e0bc9f26b6599616d2454dcbfb00"
          }
        },
        {
          "client_id": "809950040692-fut93u49oq3rvlomnh81dnhs5qr2ed71.apps.googleusercontent.com",
          "client_type": 3
        }
      ],
      "api_key": [
        {
          "current_key": "AIzaSyCh5PD_XSaGX6l6v8_Gov_EeiOIsqQOZRI"
        }
      ],
      "services": {
        "analytics_service": {
          "status": 1
        },
        "appinvite_service": {
          "status": 2,
          "other_platform_oauth_client": [
            {
              "client_id": "809950040692-fut93u49oq3rvlomnh81dnhs5qr2ed71.apps.googleusercontent.com",
              "client_type": 3
            }
          ]
        },
        "ads_service": {
          "status": 2
        }
      }
    }
  ],
  "configuration_version": "1"
}